Mini-Project #02 – STA 9750 Submission Material
…
        ALL_DATA <- rbind(HISTORICAL_DATA, CURRENT_DATA)
        
        write_csv(ALL_DATA, fname)
        
    }
    
    read_csv(fname, show_col_types=FALSE)
}

PERMITS <- get_building_permits()
print(PERMITS)

# A tibble: 5,658 × 3
    CBSA new_housing_units_permitted  year
   <dbl>                       <dbl> <dbl>
 1 10180                         214  2009
 2 10420                         741  2009
 3 10500                         213  2009
 4 10580                        1380  2009
 5 10740                        1692  2009
 6 10780                         396  2009
 7 10900                        1648  2009
 8 11020                         125  2009
 9 11100                         642  2009
10 11180                         122  2009
# ℹ 5,648 more rows
…
        write_csv(naics_table, fname)
    }
    
    read_csv(fname, show_col_types=FALSE)
}

INDUSTRY_CODES <- get_bls_industry_codes()
print(INDUSTRY_CODES)

# A tibble: 798 × 8
   level1_title   level2_title level3_title level4_title level1_code level2_code
   <chr>          <chr>        <chr>        <chr>              <dbl>       <dbl>
 1 Agriculture, … Crop produc… Oilseed and… Soybean far…          11         111
 2 Agriculture, … Crop produc… Oilseed and… Oilseed (ex…          11         111
 3 Agriculture, … Crop produc… Oilseed and… Dry pea and…          11         111
 4 Agriculture, … Crop produc… Oilseed and… Wheat farmi…          11         111
 5 Agriculture, … Crop produc… Oilseed and… Corn farming          11         111
 6 Agriculture, … Crop produc… Oilseed and… Rice farming          11         111
 7 Agriculture, … Crop produc… Oilseed and… Other grain…          11         111
 8 Agriculture, … Crop produc… Vegetable a… Vegetable a…          11         111
 9 Agriculture, … Crop produc… Fruit and t… Orange grov…          11         111
10 Agriculture, … Crop produc… Fruit and t… Citrus (exc…          11         111
# ℹ 788 more rows
# ℹ 2 more variables: level3_code <dbl>, level4_code <dbl>
…
